[11:09:29] <strong>Record</strong> #1
[11:09:31] post #68 Successfully Imported
[11:09:31] <strong>Record</strong> #2
[11:09:32] post #70 Successfully Imported
[11:09:32] <strong>Record</strong> #3
[11:09:33] post #72 Successfully Imported
[11:09:33] <strong>Record</strong> #4
[11:09:34] post #74 Successfully Imported
[11:09:34] <strong>Record</strong> #5
[11:09:35] post #76 Successfully Imported
[11:09:35] <strong>Record</strong> #6
[11:09:36] post #78 Successfully Imported
[11:09:36] <strong>Record</strong> #7
[11:09:37] post #80 Successfully Imported
[11:09:37] <strong>Record</strong> #8
[11:09:38] post #82 Successfully Imported
[11:09:38] <strong>Record</strong> #9
[11:09:39] post #84 Successfully Imported
[11:09:39] <strong>Record</strong> #10
[11:09:40] post #86 Successfully Imported
[11:09:40] <strong>Record</strong> #11
[11:09:41] post #88 Successfully Imported
[11:09:41] <strong>Record</strong> #12
[11:09:42] post #90 Successfully Imported
[11:09:42] <strong>Record</strong> #13
[11:09:43] post #92 Successfully Imported
[11:09:43] <strong>Record</strong> #14
[11:09:44] post #94 Successfully Imported
[11:09:44] <strong>Record</strong> #15
[11:09:45] post #96 Successfully Imported
[11:09:45] <strong>Record</strong> #16
[11:09:46] post #98 Successfully Imported
[11:09:46] <strong>Record</strong> #17
[11:09:47] post #100 Successfully Imported
[11:09:47] <strong>Record</strong> #18
[11:09:49] post #102 Successfully Imported
[11:09:49] <strong>Record</strong> #19
[11:09:50] post #105 Successfully Imported
[11:09:50] <strong>Record</strong> #20
[11:09:51] post #107 Successfully Imported
[11:09:52] <strong>Record</strong> #21
[11:09:53] post #109 Successfully Imported
[11:09:53] <strong>Record</strong> #22
[11:09:54] post #111 Successfully Imported
[11:09:54] <strong>Record</strong> #23
[11:09:55] post #113 Successfully Imported
[11:09:55] <strong>Record</strong> #24
[11:09:56] post #115 Successfully Imported
[11:09:56] <strong>Record</strong> #25
[11:09:57] post #117 Successfully Imported
[11:09:57] <strong>Record</strong> #26
[11:09:57] <strong>Warning</strong> : URL `christmas,creative,gifts,ideas,personal,presents` is not valid.
[11:09:57] post #119 Successfully Imported
[11:09:57] <strong>Record</strong> #27
[11:09:58] post #120 Successfully Imported
[11:09:58] <strong>Record</strong> #28
[11:09:59] post #122 Successfully Imported
[11:09:59] <strong>Record</strong> #29
[11:10:01] post #124 Successfully Imported
[11:10:01] <strong>Record</strong> #30
[11:10:02] post #126 Successfully Imported
[11:10:02] <strong>Record</strong> #31
[11:10:03] post #128 Successfully Imported
[11:10:03] <strong>Record</strong> #32
[11:10:04] post #130 Successfully Imported
[11:10:04] <strong>Record</strong> #33
[11:10:05] post #132 Successfully Imported
[11:10:05] <strong>Record</strong> #34
[11:10:06] post #134 Successfully Imported
[11:10:06] <strong>Record</strong> #35
[11:10:07] post #136 Successfully Imported
[11:10:07] <strong>Record</strong> #36
[11:10:08] post #138 Successfully Imported
[11:10:08] <strong>Record</strong> #37
[11:10:10] post #140 Successfully Imported
[11:10:10] <strong>Record</strong> #38
[11:10:11] post #142 Successfully Imported
[11:10:11] <strong>Record</strong> #39
[11:10:12] post #144 Successfully Imported
[11:10:12] <strong>Record</strong> #40
[11:10:13] post #146 Successfully Imported
[11:10:13] <strong>Record</strong> #41
[11:10:14] post #148 Successfully Imported
[11:10:14] <strong>Record</strong> #42
[11:10:15] post #150 Successfully Imported
[11:10:15] <strong>Record</strong> #43
[11:10:16] post #152 Successfully Imported
[11:10:16] <strong>Record</strong> #44
[11:10:17] post #154 Successfully Imported
[11:10:17] <strong>Record</strong> #45
[11:10:29] post #160 Successfully Imported
[11:10:29] <strong>Record</strong> #46
[11:10:32] post #167 Successfully Imported
[11:10:32] <strong>Record</strong> #47
[11:10:33] post #169 Successfully Imported
[11:10:33] <strong>Record</strong> #48
[11:10:37] post #172 Successfully Imported
[11:10:37] <strong>Record</strong> #49
[11:10:38] post #175 Successfully Imported
[11:10:38] <strong>Record</strong> #50
[11:10:39] post #177 Successfully Imported
[11:10:39] <strong>Record</strong> #51
[11:10:43] post #179 Successfully Imported
[11:10:43] <strong>Record</strong> #52
[11:10:44] post #184 Successfully Imported
[11:10:44] <strong>Record</strong> #53
[11:10:45] post #186 Successfully Imported
[11:10:45] <strong>Record</strong> #54
[11:10:46] post #188 Successfully Imported
[11:10:46] <strong>Record</strong> #55
[11:10:47] post #190 Successfully Imported
[11:10:47] <strong>Record</strong> #56
[11:10:48] post #192 Successfully Imported
[11:10:48] <strong>Record</strong> #57
[11:10:49] post #194 Successfully Imported
[11:10:49] <strong>Record</strong> #58
[11:10:51] post #196 Successfully Imported
[11:10:51] <strong>Record</strong> #59
[11:10:52] post #198 Successfully Imported
[11:10:52] <strong>Record</strong> #60
[11:10:53] post #200 Successfully Imported
[11:10:53] <strong>Record</strong> #61
[11:10:54] post #202 Successfully Imported
[11:10:54] <strong>Record</strong> #62
[11:10:55] post #204 Successfully Imported
[11:10:55] <strong>Record</strong> #63
[11:10:56] post #206 Successfully Imported
[11:10:56] <strong>Record</strong> #64
[11:10:57] post #208 Successfully Imported
[11:10:57] <strong>Record</strong> #65
[11:10:58] post #210 Successfully Imported
[11:10:58] <strong>Record</strong> #66
[11:10:59] post #212 Successfully Imported
[11:10:59] <strong>Record</strong> #67
[11:11:01] post #214 Successfully Imported
[11:11:01] <strong>Record</strong> #68
[11:11:07] post #218 Successfully Imported
[11:11:07] <strong>Record</strong> #69
[11:11:08] post #222 Successfully Imported
[11:11:08] <strong>Record</strong> #70
[11:11:09] post #224 Successfully Imported
[11:11:09] <strong>Record</strong> #71
[11:11:10] post #226 Successfully Imported
[11:11:10] <strong>Record</strong> #72
[11:11:11] post #228 Successfully Imported
[11:11:11] <strong>Record</strong> #73
[11:11:12] post #230 Successfully Imported
[11:11:12] <strong>Record</strong> #74
[11:11:13] post #232 Successfully Imported
[11:11:13] <strong>Record</strong> #75
[11:11:18] post #236 Successfully Imported
[11:11:18] <strong>Record</strong> #76
[11:11:23] post #242 Successfully Imported
[11:11:23] <strong>Record</strong> #77
[11:11:28] post #248 Successfully Imported
[11:11:28] <strong>Record</strong> #78
[11:11:32] <strong>ERROR</strong> : Could not insert post into the database.
[11:11:32] <strong>Record</strong> #79
[11:11:37] post #257 Successfully Imported
[11:11:37] <strong>Record</strong> #80
[11:11:42] post #263 Successfully Imported
[11:11:42] <strong>Record</strong> #81
[11:11:46] post #269 Successfully Imported
[11:11:46] <strong>Record</strong> #82
[11:11:51] post #274 Successfully Imported
[11:11:51] <strong>Record</strong> #83
[11:11:56] post #280 Successfully Imported
[11:11:56] <strong>Record</strong> #84
[11:12:01] post #284 Successfully Imported
[11:12:01] <strong>Record</strong> #85
[11:12:05] post #289 Successfully Imported
[11:12:05] <strong>Record</strong> #86
[11:12:10] post #295 Successfully Imported
[11:12:10] <strong>Record</strong> #87
[11:12:15] post #301 Successfully Imported
[11:12:15] <strong>Record</strong> #88
[11:12:20] post #307 Successfully Imported
[11:12:20] <strong>Record</strong> #89
[11:12:25] post #313 Successfully Imported
[11:12:25] <strong>Record</strong> #90
[11:12:30] post #319 Successfully Imported
[11:12:30] <strong>Record</strong> #91
[11:12:35] post #325 Successfully Imported
[11:12:35] <strong>Record</strong> #92
[11:12:40] <strong>Warning</strong> : Not Found
[11:12:40] post #331 Successfully Imported
[11:12:40] <strong>Record</strong> #93
[11:12:46] post #337 Successfully Imported
[11:12:46] <strong>Record</strong> #94
[11:12:51] post #343 Successfully Imported
[11:12:51] <strong>Record</strong> #95
[11:12:51] post #347 Successfully Imported
[11:12:51] <strong>Record</strong> #96
[11:12:53] post #349 Successfully Imported
[11:12:53] <strong>Record</strong> #97
[11:12:57] post #354 Successfully Imported
[11:12:57] <strong>Record</strong> #98
[11:13:02] post #360 Successfully Imported
[11:13:02] <strong>Record</strong> #99
[11:13:07] post #366 Successfully Imported
[11:13:07] <strong>Record</strong> #100
[11:13:12] post #372 Successfully Imported
